{
	"info": {
		"_postman_id": "a9c1abc0-d1d2-4add-b96b-9dded3443164",
		"name": "Postman BCP",
		"schema": "https://schema.getpostman.com/json/collection/v2.1.0/collection.json"
	},
	"item": [
		{
			"name": "Crear un nuevo tipo de cambio",
			"request": {
				"method": "POST",
				"header": [],
				"body": {
					"mode": "raw",
					"raw": "{\r\n    \"channel\": \"WEB\",\r\n    \"currencyOrigin\": \"PEN\",\r\n    \"currencyDestination\": \"DOLAR\",\r\n    \"description\": \"SOLES PERUANOS A DOLARES ESTADOS UNIDENSES\",\r\n    \"strategy\": \"c=a/b\",\r\n    \"symbolCurrencyDestination\": \"$\",\r\n    \"amountExchange\": 5.65\r\n}",
					"options": {
						"raw": {
							"language": "json"
						}
					}
				},
				"url": {
					"raw": "http://localhost:8080/exchangeCurrency/new",
					"protocol": "http",
					"host": [
						"localhost"
					],
					"port": "8080",
					"path": [
						"exchangeCurrency",
						"new"
					]
				}
			},
			"response": []
		},
		{
			"name": "Calcular tipo de cambio",
			"request": {
				"method": "GET",
				"header": [],
				"url": {
					"raw": ""
				}
			},
			"response": []
		}
	]
}